…
### Predicting the response variable

The S3 method `predict()` is implemented for objects of class
`performs_ammi` and may be used to estimate the response of each
genotype in each environment considering different number of Interaction
Principal Component Axis (IPCA). As a example, to predict the variables
GY and HM we will use four and six IPCA (number of significant IPCAs,
respectively).

``` r
pred <- predict(model, naxis = c(4, 6))
pred$GY
#> # A tibble: 140 x 8
#>    ENV   GEN       Y  resOLS Ypred ResAMMI[,1] YpredAMMI[,1] AMMI0
#>    <fct> <fct> <dbl>   <dbl> <dbl>       <dbl>         <dbl> <dbl>
#>  1 E1    G1     2.37 -0.0843  2.45     0.0712           2.52  2.45
#>  2 E1    G10    1.97 -0.344   2.32    -0.354            1.96  2.32
#>  3 E1    G2     2.90  0.311   2.59     0.290            2.88  2.59
#>  4 E1    G3     2.89  0.0868  2.80    -0.0452           2.76  2.80
#>  5 E1    G4     2.59  0.100   2.49     0.0494           2.54  2.49
#>  6 E1    G5     2.19 -0.196   2.38    -0.0709           2.31  2.38
#>  7 E1    G6     2.30 -0.0797  2.38    -0.0829           2.30  2.38
#>  8 E1    G7     2.77  0.186   2.59     0.164            2.75  2.59
#>  9 E1    G8     2.90  0.0493  2.85    -0.00536          2.84  2.85
#> 10 E1    G9     2.33 -0.0307  2.36    -0.0170           2.34  2.36
#> # ... with 130 more rows
```
…
### BLUPS for genotype-vs-environment interaction

The object `BLUPgge` contains the blups for the genotype-vs-environment
interaction. In the following example, the values for `GY` are shown.

``` r
model2$GY$BLUPgge
#> # A tibble: 140 x 8
#>    ENV   GEN    BLUPge   BLUPg `BLUPg+ge` Predicted    LL    UL
#>    <fct> <fct>   <dbl>   <dbl>      <dbl>     <dbl> <dbl> <dbl>
#>  1 E1    G1    -0.0621 -0.0575    -0.120       2.40  2.30  2.50
#>  2 E1    G10   -0.243  -0.166     -0.409       2.11  2.01  2.22
#>  3 E1    G2     0.207   0.0570     0.264       2.78  2.68  2.89
#>  4 E1    G3     0.0885  0.229      0.318       2.84  2.73  2.94
#>  5 E1    G4     0.0601 -0.0264     0.0337      2.55  2.45  2.66
#>  6 E1    G5    -0.141  -0.112     -0.252       2.27  2.16  2.37
#>  7 E1    G6    -0.0673 -0.114     -0.182       2.34  2.24  2.44
#>  8 E1    G7     0.127   0.0543     0.181       2.70  2.60  2.81
#>  9 E1    G8     0.0702  0.269      0.339       2.86  2.76  2.96
#> 10 E1    G9    -0.0389 -0.134     -0.173       2.35  2.24  2.45
#> # ... with 130 more rows
```

When more than one variable is fitted, the predicted means for
genotype-vs-environment combination may be obtained for all variables in
the model using `get_model_data()`.

``` r
get_model_data(model2, what = "blupge")
#> # A tibble: 140 x 4
#>    ENV   GEN      GY    HM
#>    <fct> <fct> <dbl> <dbl>
#>  1 E1    G1     2.40  46.6
#>  2 E1    G10    2.11  47.2
#>  3 E1    G2     2.78  45.7
#>  4 E1    G3     2.84  46.2
#>  5 E1    G4     2.55  48.0
#>  6 E1    G5     2.27  49.4
#>  7 E1    G6     2.34  48.1
#>  8 E1    G7     2.70  47.4
#>  9 E1    G8     2.86  48.0
#> 10 E1    G9     2.35  47.6
#> # ... with 130 more rows
```
…
