Multi-environment Trial Analysis
…
Or obtain the means for genotypes, environments or genotype-environment interaction with ge_means(). Note that the function round_cols() provided by metan round all numeric columns of a data frame to two (default) significant figures.

mge <- ge_means(data_ge,
                env = ENV,
                gen = GEN,
                resp = everything())
# Genotype-environment means
get_model_data(mge) %>% round_cols()
# Class of the model: ge_means
# Variable extracted: ge_means
# # A tibble: 140 x 4
#    ENV   GEN      GY    HM
#    <fct> <fct> <dbl> <dbl>
#  1 E1    G1     2.37  46.5
#  2 E1    G10    1.97  46.9
#  3 E1    G2     2.9   45.3
#  4 E1    G3     2.89  45.9
#  5 E1    G4     2.59  48.3
#  6 E1    G5     2.19  49.9
#  7 E1    G6     2.3   48.2
#  8 E1    G7     2.77  47.4
#  9 E1    G8     2.9   48.0
# 10 E1    G9     2.33  47.7
# # ... with 130 more rows
# Environment means
…
