Multi Environment Trials Analysis • metan
…
model <- performs_ammi(data_ge,
                       env = ENV,
                       gen = GEN,
                       rep = REP,
                       resp = everything(),
                       verbose = FALSE)

Predicting the response variable

The S3 method predict() is implemented for objects of class performs_ammi and may be used to estimate the response of each genotype in each environment considering different number of Interaction Principal Component Axis (IPCA). As a example, to predict the variables GY and HM we will use four and six IPCA (number of significant IPCAs, respectively).

pred <- predict(model, naxis = c(4, 6))
pred$GY
# # A tibble: 140 x 8
#    ENV   GEN       Y  resOLS Ypred ResAMMI[,1] YpredAMMI[,1] AMMI0
#    <fct> <fct> <dbl>   <dbl> <dbl>       <dbl>         <dbl> <dbl>
#  1 E1    G1     2.37 -0.0843  2.45     0.0712           2.52  2.45
#  2 E1    G10    1.97 -0.344   2.32    -0.354            1.96  2.32
#  3 E1    G2     2.90  0.311   2.59     0.290            2.88  2.59
#  4 E1    G3     2.89  0.0868  2.80    -0.0452           2.76  2.80
#  5 E1    G4     2.59  0.100   2.49     0.0494           2.54  2.49
#  6 E1    G5     2.19 -0.196   2.38    -0.0709           2.31  2.38
#  7 E1    G6     2.30 -0.0797  2.38    -0.0829           2.30  2.38
#  8 E1    G7     2.77  0.186   2.59     0.164            2.75  2.59
#  9 E1    G8     2.90  0.0493  2.85    -0.00536          2.84  2.85
# 10 E1    G9     2.33 -0.0307  2.36    -0.0170           2.34  2.36
# # ... with 130 more rows
…
#    GEN        GY      HM
#    <fct>   <dbl>   <dbl>
#  1 G1    -0.0575 -0.692 
#  2 G2     0.0570 -0.980 
#  3 G3     0.229  -0.332 
#  4 G4    -0.0264 -0.0387
#  5 G5    -0.112   0.830 
#  6 G6    -0.114   0.441 
#  7 G7     0.0543 -0.0838
#  8 G8     0.269   0.696 
#  9 G9    -0.134  -0.127 
# 10 G10   -0.166   0.287 
# 
# $ENV_GEN
# # A tibble: 140 x 4
#    ENV   GEN        GY       HM
#    <fct> <fct>   <dbl>    <dbl>
#  1 E1    G1    -0.120  -0.831  
#  2 E1    G2     0.264  -1.75   
#  3 E1    G3     0.318  -1.17   
#  4 E1    G4     0.0337  0.599  
#  5 E1    G5    -0.252   1.97   
#  6 E1    G6    -0.182   0.714  
#  7 E1    G7     0.181  -0.00319
#  8 E1    G8     0.339   0.593  
#  9 E1    G9    -0.173   0.147  
# 10 E1    G10   -0.409  -0.266  
# # ... with 130 more rows

When more than one variable is fitted, the predicted means for genotype-vs-environment combination may be obtained for all variables in the model using predict().

predict(model2)
# # A tibble: 420 x 5
#    ENV   GEN   REP      GY    HM
#    <fct> <fct> <fct> <dbl> <dbl>
#  1 E1    G1    1      2.46  46.6
#  2 E1    G1    2      2.44  46.0
#  3 E1    G1    3      2.31  47.1
#  4 E1    G2    1      2.84  45.7
#  5 E1    G2    2      2.82  45.1
#  6 E1    G2    3      2.69  46.2
#  7 E1    G3    1      2.89  46.3
#  8 E1    G3    2      2.87  45.7
#  9 E1    G3    3      2.75  46.8
# 10 E1    G4    1      2.61  48.0
# # ... with 410 more rows
…
