Parametric and non-parametric stability statistics • metan
…
15.567

The easiest way to compute the above-mentioned stability indexes is by using the function ge_stats(). It is a wrapper function that computes all the stability indexes at once. To get the results into a “ready-to-read” file, use get_model_data().

Wrapper function

stat_ge <- data_ge2 %>% ge_stats(ENV, GEN, REP, resp = c(EH, EP))

Evaluating variable EH 0 % 
Evaluating variable EP 100 % 

get_model_data(stat_ge, "stats")

# A tibble: 26 x 32
   var   gen       Y   Var  Shukla  Wi_g  Wi_f  Wi_u Ecoval   bij     Sij    R2
   <chr> <chr> <dbl> <dbl>   <dbl> <dbl> <dbl> <dbl>  <dbl> <dbl>   <dbl> <dbl>
 1 EH    H1     1.50 0.288 0.0522   84.6 100.   78.3  0.425 1.06  0.0637  0.509
 2 EH    H10    1.26 0.294 0.0303   72.4 101.   62.8  0.258 1.30  0.0303  0.747
 3 EH    H11    1.27 0.195 0.0220   75.6  95.0  61.2  0.195 1.00  0.0256  0.667
 4 EH    H12    1.28 0.231 0.0783   61.3  96.4  33.8  0.624 0.590 0.0861  0.195
 5 EH    H13    1.35 0.116 0.0345   76.5  99.8  59.6  0.290 0.575 0.0298  0.369
 6 EH    H2     1.38 0.246 0.0906   69.4  76.2  73.4  0.718 0.525 0.0981  0.145
 7 EH    H3     1.41 0.359 0.0715   72.2  93.4  58.7  0.572 1.15  0.0870  0.476
 8 EH    H4     1.43 0.337 0.0366   80.7 102.   63.3  0.306 1.41  0.0335  0.760
 9 EH    H5     1.37 0.241 0.00986  86.8  96.6  76.3  0.103 1.30  0.00449 0.905
10 EH    H6     1.41 0.114 0.0126   91.1  97.5  99.4  0.124 0.780 0.0106  0.693
# … with 16 more rows, and 20 more variables: ASV <dbl>, SIPC <dbl>, EV <dbl>,
#   ZA <dbl>, WAAS <dbl>, HMGV <dbl>, RPGV <dbl>, HMRPGV <dbl>, Pi_a <dbl>,
#   Pi_f <dbl>, Pi_u <dbl>, Gai <dbl>, S1 <dbl>, S2 <dbl>, S3 <dbl>, S6 <dbl>,
#   N1 <dbl>, N2 <dbl>, N3 <dbl>, N4 <dbl>

get_model_data(stat_ge, "ranks")

# A tibble: 26 x 31
   var   gen     Y_R Var_R Shukla_R Wi_g_R Wi_f_R Wi_u_R Ecoval_R Sij_R  R2_R
   <chr> <chr> <dbl> <dbl>    <dbl>  <dbl>  <dbl>  <dbl>    <dbl> <dbl> <dbl>
 1 EH    H1        1     9        9      3      4      2        9     9     8
 2 EH    H10      12    10        6      9      2      8        6     7     4
 3 EH    H11      11     4        5      8      9      9        5     5     7
 4 EH    H12       9     5       12     12      8     13       12    11    12
 5 EH    H13       7     2        7      7      5     10        7     6    11
 6 EH    H2        5     7       13     11     13      5       13    13    13
 7 EH    H3        4    13       11     10     10     11       11    12     9
 8 EH    H4        2    12        8      5      1      7        8     8     3
 9 EH    H5        6     6        1      2      7      4        1     2     2
10 EH    H6        3     1        3      1      6      1        3     3     6
# … with 16 more rows, and 20 more variables: ASV_R <dbl>, SIPC_R <dbl>,
#   EV_R <dbl>, ZA_R <dbl>, WAAS_R <dbl>, HMGV_R <dbl>, RPGV_R <dbl>,
#   HMRPGV_R <dbl>, Pi_a_R <dbl>, Pi_f_R <dbl>, Pi_u_R <dbl>, Gai_R <dbl>,
#   S1_R <dbl>, S2_R <dbl>, S3_R <dbl>, S6_R <dbl>, N1_R <dbl>, N2_R <dbl>,
#   N3_R <dbl>, N4_R <dbl>
…
