Helper functions for metan • metan
…
Select helpers

The package metan reexports the tidy select helpers and implements three own select helpers based on operations with prefixes and suffixes: difference_var(), intersect_var(), and union_var().

Variables that start with a prefix and ends with a suffix.

Here, we will select the variables from data_ge2 that start with “C” and ends with “D”.

data_ge2 %>% 
  select(intersect_var("C", "D"))

# A tibble: 156 x 2
      CD  CDED
   <dbl> <dbl>
 1  16.3 0.538
 2  14.5 0.551
 3  16.4 0.561
 4  17.4 0.586
 5  15.5 0.607
 6  17.5 0.577
 7  18.0 0.594
 8  17.2 0.608
 9  16.4 0.576
10  15.5 0.597
# … with 146 more rows

Variables that start with a prefix OR ends with a suffix.

The following code select variables that start with “C” or ends with “D”.

data_ge2 %>% 
  select(union_var("C", "D"))

# A tibble: 156 x 5
      CL    CD    CW  CDED    ED
   <dbl> <dbl> <dbl> <dbl> <dbl>
 1  28.1  16.3  25.1 0.538  52.2
 2  27.6  14.5  21.4 0.551  50.3
 3  28.4  16.4  24.0 0.561  50.7
 4  31.7  17.4  26.2 0.586  54.1
 5  32.0  15.5  20.7 0.607  52.7
 6  30.4  17.5  26.8 0.577  52.7
 7  30.6  18.0  26.2 0.594  51.7
 8  28.7  17.2  24.1 0.608  47.2
 9  27.6  16.4  20.5 0.576  47.9
10  28.2  15.5  20.1 0.597  47.5
# … with 146 more rows

Variables that start with a prefix AND NOT ends with a suffix.

The following code select variables that start with “C” and not ends with “D”.

data_ge2 %>% 
  select(difference_var("C", "D"))

# A tibble: 156 x 2
      CL    CW
   <dbl> <dbl>
 1  28.1  25.1
 2  27.6  21.4
 3  28.4  24.0
 4  31.7  26.2
 5  32.0  20.7
 6  30.4  26.8
 7  30.6  26.2
 8  28.7  24.1
 9  27.6  20.5
10  28.2  20.1
# … with 146 more rows

Remove rows or colums wih NA values

The functions remove_rows_na() and remove_rows_na() are used to remove rows and columns with NA values, respectively.

data_with_na <- data_g
data_with_na[c(1, 5, 10), c(3:5, 10:15)] <- NA
data_with_na

# A tibble: 39 x 17
   GEN   REP      PH     EH     EP    EL    ED    CL    CD    CW    KW    NR
   <fct> <fct> <dbl>  <dbl>  <dbl> <dbl> <dbl> <dbl> <dbl> <dbl> <dbl> <dbl>
 1 H1    1     NA    NA     NA      15.7  49.9  30.5  16.6  NA     NA   NA  
 2 H1    2      2.20  1.09   0.492  13.7  49.2  30.5  14.7  22.3  130.  16.4
 3 H1    3      2.29  1.15   0.502  15.1  52.6  31.7  16.2  29.6  176.  15.6
 4 H10   1      1.79  0.888  0.514  13.9  44.1  26.2  15.0  12.9  116.  14.8
 5 H10   2     NA    NA     NA      13.6  43.9  23.5  14.4  NA     NA   NA  
 6 H10   3      2.27  1.11   0.491  14.5  43.7  24.6  16.1  12.5  128.  15.2
 7 H11   1      1.71  0.808  0.489  15.5  45.2  25.0  16.7  15.2  140.  15.6
 8 H11   2      2.09  1.06   0.509  12.2  46.9  26.5  14.3  13.5  114.  16.8
 9 H11   3      2.5   1.44   0.577  15.0  49.0  27.5  15.2  19.4  168.  16.4
10 H12   1     NA    NA     NA      14.4  49.2  28.4  15    NA     NA   NA  
# … with 29 more rows, and 5 more variables: NKR <dbl>, CDED <dbl>, PERK <dbl>,
#   TKW <dbl>, NKE <dbl>

remove_cols_na(data_with_na)

Warning: Column(s) PH, EH, EP, CW, KW, NR, NKR, CDED, PERK with NA values
deleted.

# A tibble: 39 x 8
   GEN   REP      EL    ED    CL    CD   TKW   NKE
   <fct> <fct> <dbl> <dbl> <dbl> <dbl> <dbl> <dbl>
 1 H1    1      15.7  49.9  30.5  16.6  347.  458.
 2 H1    2      13.7  49.2  30.5  14.7  337.  386.
 3 H1    3      15.1  52.6  31.7  16.2  422.  431.
 4 H10   1      13.9  44.1  26.2  15.0  258.  446.
 5 H10   2      13.6  43.9  23.5  14.4  233.  496.
 6 H10   3      14.5  43.7  24.6  16.1  251.  524.
 7 H11   1      15.5  45.2  25.0  16.7  264.  535.
 8 H11   2      12.2  46.9  26.5  14.3  288.  397 
 9 H11   3      15.0  49.0  27.5  15.2  315.  532.
10 H12   1      14.4  49.2  28.4  15    291.  525.
# … with 29 more rows

remove_rows_na(data_with_na)

Warning: Row(s) 1, 5, 10 with NA values deleted.

# A tibble: 36 x 17
   GEN   REP      PH    EH    EP    EL    ED    CL    CD    CW    KW    NR   NKR
   <fct> <fct> <dbl> <dbl> <dbl> <dbl> <dbl> <dbl> <dbl> <dbl> <dbl> <dbl> <dbl>
 1 H1    2      2.20 1.09  0.492  13.7  49.2  30.5  14.7  22.3  130.  16.4  24.8
 2 H1    3      2.29 1.15  0.502  15.1  52.6  31.7  16.2  29.6  176.  15.6  29.2
 3 H10   1      1.79 0.888 0.514  13.9  44.1  26.2  15.0  12.9  116.  14.8  33  
 4 H10   3      2.27 1.11  0.491  14.5  43.7  24.6  16.1  12.5  128.  15.2  34.6
 5 H11   1      1.71 0.808 0.489  15.5  45.2  25.0  16.7  15.2  140.  15.6  36  
 6 H11   2      2.09 1.06  0.509  12.2  46.9  26.5  14.3  13.5  114.  16.8  26.2
 7 H11   3      2.5  1.44  0.577  15.0  49.0  27.5  15.2  19.4  168.  16.4  35  
 8 H12   2      2.77 1.58  0.572  13.8  46.5  23.8  14.6  16.3  153.  17.6  31.4
 9 H12   3      2.00 0.782 0.386  13.7  47.5  25.3  14.3  18.9  139.  14.8  25.4
10 H13   1      2.52 1.09  0.434  16.1  51.7  28.2  16.6  23.9  199.  18    30.8
# … with 26 more rows, and 4 more variables: CDED <dbl>, PERK <dbl>, TKW <dbl>,
#   NKE <dbl>
…
