Useful functions for biometrical models • metan
…
# Inform n and r
corr_ci(n = 145, r = 0.34)
# -------------------------------------------------
# Nonparametric 95% half-width confidence interval 
# -------------------------------------------------
# Level of significance: 5%
# Correlation coefficient: 0.34
# Sample size: 145
# Confidence interval: 0.1422
# True parameter range from: 0.1978 to 0.4822 
# -------------------------------------------------

# Compute the confidence for each level of ENV
CI2 <- corr_ci(data_ge2, contains("E"), by = ENV)
# # A tibble: 21 x 5
#    Pair         Corr    CI      LL      UL
#    <chr>       <dbl> <dbl>   <dbl>   <dbl>
#  1 EH x EP    0.839  0.185  0.655   1.02  
#  2 EH x EL    0.148  0.320 -0.172   0.467 
#  3 EH x ED   -0.0385 0.349 -0.387   0.310 
#  4 EH x CDED  0.186  0.310 -0.125   0.496 
#  5 EH x PERK -0.205  0.306 -0.510   0.101 
#  6 EH x NKE  -0.324  0.278 -0.602  -0.0458
#  7 EP x EL    0.150  0.319 -0.169   0.469 
#  8 EP x ED   -0.0840 0.336 -0.420   0.252 
#  9 EP x CDED  0.328  0.277  0.0502  0.605 
# 10 EP x PERK -0.221  0.302 -0.523   0.0801
# # ... with 11 more rows
# # A tibble: 21 x 5
#    Pair         Corr    CI      LL    UL
#    <chr>       <dbl> <dbl>   <dbl> <dbl>
#  1 EH x EP    0.899  0.176  0.722  1.08 
#  2 EH x EL    0.498  0.242  0.255  0.740
#  3 EH x ED    0.748  0.199  0.549  0.947
#  4 EH x CDED  0.211  0.304 -0.0935 0.515
#  5 EH x PERK  0.0187 0.354 -0.335  0.373
#  6 EH x NKE   0.269  0.290 -0.0217 0.559
#  7 EP x EL    0.365  0.269  0.0960 0.634
#  8 EP x ED    0.600  0.224  0.376  0.823
#  9 EP x CDED  0.249  0.295 -0.0463 0.544
# 10 EP x PERK -0.0505 0.345 -0.396  0.295
# # ... with 11 more rows
# # A tibble: 21 x 5
#    Pair          Corr    CI       LL      UL
#    <chr>        <dbl> <dbl>    <dbl>   <dbl>
#  1 EH x EP    0.844   0.184  0.659   1.03   
#  2 EH x EL   -0.0977  0.333 -0.430   0.235  
#  3 EH x ED    0.363   0.270  0.0935  0.633  
#  4 EH x CDED -0.282   0.287 -0.569   0.00544
#  5 EH x PERK  0.126   0.325 -0.199   0.451  
#  6 EH x NKE   0.279   0.288 -0.00876 0.567  
#  7 EP x EL   -0.194   0.308 -0.502   0.114  
#  8 EP x ED    0.200   0.307 -0.107   0.507  
#  9 EP x CDED -0.00956 0.357 -0.366   0.347  
# 10 EP x PERK  0.0365  0.349 -0.313   0.386  
# # ... with 11 more rows
# # A tibble: 21 x 5
#    Pair       Corr    CI      LL    UL
#    <chr>     <dbl> <dbl>   <dbl> <dbl>
#  1 EH x EP   0.781 0.194  0.587  0.975
#  2 EH x EL   0.250 0.295 -0.0446 0.545
#  3 EH x ED   0.404 0.261  0.143  0.665
#  4 EH x CDED 0.143 0.321 -0.178  0.464
#  5 EH x PERK 0.250 0.295 -0.0447 0.545
#  6 EH x NKE  0.246 0.296 -0.0492 0.542
#  7 EP x EL   0.241 0.297 -0.0559 0.538
#  8 EP x ED   0.210 0.304 -0.0942 0.514
#  9 EP x CDED 0.236 0.298 -0.0626 0.534
# 10 EP x PERK 0.156 0.318 -0.162  0.473
# # ... with 11 more rows
…
