Joint analysis of variance — anova_joint • metan
…
#>        GEN   9.00    270   29.98   10.56  7.41e-14
#>    GEN:ENV 117.00   1101    9.41    3.31  1.06e-15
#>  Residuals 252.00    716    2.84      NA        NA
#>      CV(%)   3.50     NA      NA      NA        NA
#>  MSR+/MSR-   5.24     NA      NA      NA        NA
#>     OVmean  48.09     NA      NA      NA        NA
#> ---------------------------------------------------------------------------
#> 
#> All variables with significant (p < 0.05) genotype-vs-environment interaction
#> Done!
# Predicted values
get_model_data(j_an)
#> Class of the model: anova_joint
#> Variable extracted: fitted
#> # A tibble: 420 × 6
#>    ENV   GEN   REP   factors    GY    HM
#>    <fct> <fct> <fct> <chr>   <dbl> <dbl>
#>  1 E1    G1    1     G1_1     2.42  46.5
#>  2 E1    G1    2     G1_2     2.40  46.0
#>  3 E1    G1    3     G1_3     2.27  47.1
#>  4 E1    G2    1     G2_1     2.96  45.4
#>  5 E1    G2    2     G2_2     2.94  44.8
#>  6 E1    G2    3     G2_3     2.81  45.9
#>  7 E1    G3    1     G3_1     2.95  45.9
#>  8 E1    G3    2     G3_2     2.92  45.3
#>  9 E1    G3    3     G3_3     2.80  46.4
#> 10 E1    G4    1     G4_1     2.65  48.3
#> # … with 410 more rows
…
