Within-environment analysis of variance — anova_ind • metan
…
# \donttest{
library(metan)
# ANOVA for all variables in data
ind_an <- anova_ind(data_ge,
                    env = ENV,
                    gen = GEN,
                    rep = REP,
                    resp = everything())
#> Evaluating trait GY |======================                      | 50% 00:00:00 Evaluating trait HM |============================================| 100% 00:00:00 
# mean for each environment
get_model_data(ind_an)
#> Class of the model: anova_ind
#> Variable extracted: ALL
#> # A tibble: 28 x 16
#>    trait ENV    MEAN   DFG   MSG   FCG     PFG   DFB    MSB    FCB     PFB   DFE
#>    <chr> <chr> <dbl> <int> <dbl> <dbl>   <dbl> <int>  <dbl>  <dbl>   <dbl> <int>
#>  1 GY    E1     2.52     9 0.337  2.34 5.94e-2     2 0.0652  0.453 6.43e-1    18
#>  2 GY    E10    2.18     9 0.296 11.1  1.10e-5     2 0.654  24.5   7.28e-6    18
#>  3 GY    E11    1.37     9 0.151  1.44 2.44e-1     2 0.377   3.59  4.86e-2    18
#>  4 GY    E12    1.61     9 0.320  5.98 6.47e-4     2 0.0919  1.72  2.08e-1    18
#>  5 GY    E13    2.91     9 0.713  7.18 2.10e-4     2 0.0767  0.772 4.77e-1    18
#>  6 GY    E14    1.78     9 0.131  1.73 1.53e-1     2 0.104   1.37  2.78e-1    18
#>  7 GY    E2     3.18     9 0.207  1.16 3.76e-1     2 0.698   3.91  3.88e-2    18
#>  8 GY    E3     4.06     9 0.335  1.87 1.23e-1     2 0.489   2.73  9.21e-2    18
#>  9 GY    E4     3.68     9 0.531  3.86 7.12e-3     2 0.116   0.846 4.46e-1    18
#> 10 GY    E5     3.91     9 0.526  7.93 1.10e-4     2 0.219   3.30  6.02e-2    18
#> # ... with 18 more rows, and 4 more variables: MSE <dbl>, CV <dbl>, h2 <dbl>,
#> #   AS <dbl>
…
