Confidence interval for correlation coefficient — corr_ci • metan
…
    Olivoto, T., A.D.C. Lucio, V.Q. Souza, M. Nardino, M.I. Diel,
  B.G. Sari, D.. K. Krysczun, D. Meira, and C. Meier. 2018. Confidence
  interval width for Pearson's correlation coefficient: a
  Gaussian-independent estimator based on sample size and strength of
  association. Agron. J. 110:1-8.
  10.2134/agronj2016.04.0196

    Examples

# \donttest{
library(metan)

CI1 <- corr_ci(data_ge2)
#> # A tibble: 105 x 6
#>    Pair      Corr     n     CI    LL    UL
#>    <chr>    <dbl> <int>  <dbl> <dbl> <dbl>
#>  1 PH x EH  0.932   156 0.0858 0.846 1.02 
#>  2 PH x EP  0.638   156 0.108  0.530 0.747
#>  3 PH x EL  0.380   156 0.133  0.247 0.513
#>  4 PH x ED  0.661   156 0.106  0.555 0.768
#>  5 PH x CL  0.325   156 0.139  0.186 0.464
#>  6 PH x CD  0.315   156 0.140  0.176 0.455
#>  7 PH x CW  0.505   156 0.120  0.384 0.625
#>  8 PH x KW  0.753   156 0.0988 0.655 0.852
#>  9 PH x NR  0.329   156 0.138  0.190 0.467
#> 10 PH x NKR 0.353   156 0.136  0.217 0.489
#> # ... with 95 more rows
…
