Descriptive statistics from long to wide — desc_wider • metan
…
    Examples

# \donttest{
library(metan)

df <-
 data_ge2 %>%
 split_factors(GEN) %>%
 desc_stat(EP, EL, PH, CL,
           stats = c('mean, CI.mean, SE.mean, var.amo, CV'),
           verbose = FALSE)
#> Warning: Use 'keep_factors = TRUE' to keep the columns ENV GEN REP in the grouped data. 

print(df, n = 15)
#> # A tibble: 65 x 6
#>    GEN   Statistic     CL     EL       EP      PH
#>    <chr> <chr>      <dbl>  <dbl>    <dbl>   <dbl>
#>  1 H1    ci.mean    1.02   0.602  0.0359   0.195 
#>  2 H1    cv         5.33   6.27   9.91    11.7   
#>  3 H1    mean      30.1   15.1    0.570    2.62  
#>  4 H1    se.mean    0.462  0.273  0.0163   0.0885
#>  5 H1    var.amo    2.56   0.897  0.00320  0.0940
#>  6 H10   ci.mean    1.89   0.656  0.0395   0.217 
#>  7 H10   cv        10.5    6.83  11.4     14.8   
#>  8 H10   mean      28.4   15.1    0.545    2.31  
#>  9 H10   se.mean    0.860  0.298  0.0180   0.0987
#> 10 H10   var.amo    8.88   1.07   0.00387  0.117 
#> 11 H11   ci.mean    1.27   0.818  0.0307   0.218 
#> 12 H11   cv         7.08   8.46   9.18    14.4   
#> 13 H11   mean      28.3   15.2    0.527    2.39  
#> 14 H11   se.mean    0.577  0.372  0.0140   0.0991
#> 15 H11   var.amo    4.00   1.66   0.00234  0.118 
#> # ... with 50 more rows
…
