Descriptive statistics — desc_stat • metan
…
# Compute all the statistics for each combination of "ENV" and "GEN"
# All the numeric variables in .data

stats_all <-
  data_ge2 %>%
  split_factors(ENV, GEN) %>%
  desc_stat(stats = "all", verbose = FALSE)
#> Warning: Use 'keep_factors = TRUE' to keep the columns ENV GEN REP in the grouped data. 
desc_wider(stats_all, PH)
#> # A tibble: 52 x 30
#>    ENV   GEN   av.dev ci.mean    cv gm.mean hm.mean    iqr  kurt    mad   max
#>    <chr> <chr>  <dbl>   <dbl> <dbl>   <dbl>   <dbl>  <dbl> <dbl>  <dbl> <dbl>
#>  1 "A1 " " H1" 0.0996  0.333  4.93     2.72    2.72 0.130  -2.33 0.107   2.87
#>  2 "A1 " " H1~ 0.0396  0.136  1.97     2.78    2.78 0.0540 -2.33 0.0563  2.83
#>  3 "A1 " " H1~ 0.0191  0.0675 0.988    2.75    2.75 0.0270 -2.33 0.0326  2.77
#>  4 "A1 " " H1~ 0.0898  0.299  4.47     2.69    2.69 0.116  -2.33 0.0890  2.79
#>  5 "A1 " " H1~ 0.107   0.366  5.31     2.77    2.77 0.145  -2.33 0.148   2.93
#>  6 "A1 " " H2" 0.161   0.521  7.51     2.79    2.78 0.186  -2.33 0.0267  2.92
#>  7 "A1 " " H3" 0.0782  0.281  3.86     2.93    2.93 0.113  -2.33 0.148   3.04
#>  8 "A1 " " H4" 0.102   0.352  4.95     2.87    2.86 0.14   -2.33 0.148   3.02
#>  9 "A1 " " H5" 0.0462  0.154  2.19     2.83    2.83 0.06   -2.33 0.0474  2.90
#> 10 "A1 " " H6" 0.0862  0.291  4.23     2.77    2.77 0.114  -2.33 0.101   2.90
#> # ... with 42 more rows, and 19 more variables: mean <dbl>, median <dbl>,
#> #   min <dbl>, n <dbl>, q2.5 <dbl>, q25 <dbl>, q75 <dbl>, q97.5 <dbl>,
#> #   range <dbl>, sd.amo <dbl>, sd.pop <dbl>, se.mean <dbl>, skew <dbl>,
#> #   sum <dbl>, sum.dev <dbl>, sum.sq.dev <dbl>, valid.n <dbl>, var.amo <dbl>,
#> #   var.pop <dbl>
…
