Genotype analysis by fixed-effect models — gafem • metan
…
# Fitted values
get_model_data(rcbd)
#> Class of the model: gafem
#> Variable extracted: fitted
#> # A tibble: 39 × 8
#>    GEN   REP   factors    PH    ED    EL    CL    CW
#>    <fct> <fct> <chr>   <dbl> <dbl> <dbl> <dbl> <dbl>
#>  1 H1    1     H1_1     2.13  50.8  15.1  31.7  27.6
#>  2 H1    2     H1_2     2.21  49.9  14.7  30.1  25.2
#>  3 H1    3     H1_3     2.25  51.1  14.7  30.9  27.8
#>  4 H10   1     H10_1    1.97  44.1  14.2  25.6  13.0
#>  5 H10   2     H10_2    2.05  43.2  13.8  24.0  10.6
#>  6 H10   3     H10_3    2.09  44.4  13.9  24.7  13.2
#>  7 H11   1     H11_1    2.03  47.3  14.5  27.2  16.7
#>  8 H11   2     H11_2    2.11  46.3  14.1  25.6  14.3
#>  9 H11   3     H11_3    2.16  47.5  14.2  26.3  16.9
#> 10 H12   1     H12_1    2.36  48.0  14.2  26.6  18.5
#> # … with 29 more rows
…
# Fitted values
get_model_data(alpha)
#> Class of the model: gafem
#> Variable extracted: fitted
#> # A tibble: 72 × 5
#>    GEN   REP   BLOCK factors   YIELD
#>    <fct> <fct> <fct> <chr>     <dbl>
#>  1 G11   R1    B1    G11_R1_B1  4.41
#>  2 G04   R1    B1    G04_R1_B1  4.73
#>  3 G05   R1    B1    G05_R1_B1  5.23
#>  4 G22   R1    B1    G22_R1_B1  4.65
#>  5 G21   R1    B2    G21_R1_B2  4.61
#>  6 G10   R1    B2    G10_R1_B2  4.21
#>  7 G20   R1    B2    G20_R1_B2  4.04
#>  8 G02   R1    B2    G02_R1_B2  4.32
#>  9 G23   R1    B3    G23_R1_B3  4.11
#> 10 G14   R1    B3    G14_R1_B3  4.70
#> # … with 62 more rows
…
