Genotype analysis by mixed-effect models — gamem • metan
…
# Predicted values
predict(rcbd)
#> # A tibble: 39 x 11
#>    GEN   REP      PH    ED    EL    CL    CW    KW    NR   TKW   NKE
#>    <fct> <fct> <dbl> <dbl> <dbl> <dbl> <dbl> <dbl> <dbl> <dbl> <dbl>
#>  1 H1    1      2.12  50.5  14.9  31.5  26.9  156.  15.8  360.  436.
#>  2 H1    2      2.20  49.5  14.5  29.9  24.4  146.  16.1  343.  428.
#>  3 H1    3      2.24  50.7  14.6  30.6  27.1  159.  15.7  359.  449.
#>  4 H10   1      2.02  44.6  14.8  26.0  14.0  132.  15.4  274.  481.
#>  5 H10   2      2.10  43.7  14.4  24.4  11.6  122.  15.7  257.  473.
#>  6 H10   3      2.14  44.9  14.5  25.1  14.2  135.  15.3  272.  494.
#>  7 H11   1      2.06  47.4  14.9  27.4  17.3  145.  16.1  303.  481.
#>  8 H11   2      2.14  46.4  14.5  25.8  14.9  135.  16.4  286.  472.
#>  9 H11   3      2.18  47.6  14.5  26.5  17.5  148.  16.0  302.  493.
#> 10 H12   1      2.26  48.0  14.8  26.9  18.9  150.  16.1  300.  501.
#> # ... with 29 more rows
…
# Random effects
get_model_data(alpha, "ranef")
#> Class of the model: gamem
#> Variable extracted: ranef
#> $GEN
#> # A tibble: 24 x 2
#>    GEN      YIELD
#>    <fct>    <dbl>
#>  1 G11   -0.196  
#>  2 G04    0.00613
#>  3 G05    0.475  
#>  4 G22    0.0241 
#>  5 G21    0.256  
#>  6 G10   -0.0894 
#>  7 G20   -0.339  
#>  8 G02    0.00496
#>  9 G23   -0.177  
#> 10 G14    0.243  
#> # ... with 14 more rows
…
#>  7 R2    B1    -0.533  
#>  8 R2    B2    -0.301  
#>  9 R2    B3     0.243  
#> 10 R2    B4     0.135  
#> 11 R2    B5     0.275  
#> 12 R2    B6     0.180  
#> 13 R3    B1     0.0506 
#> 14 R3    B2    -0.0478 
#> 15 R3    B3     0.151  
#> 16 R3    B4     0.0538 
#> 17 R3    B5    -0.00805
#> 18 R3    B6    -0.200  
#> 
#> $GEN_REP_BLOCK
#> # A tibble: 72 x 4
#>    GEN   REP   BLOCK   YIELD
#>    <fct> <fct> <fct>   <dbl>
#>  1 G11   R1    B1    -0.0733
#>  2 G04   R1    B1     0.129 
#>  3 G05   R1    B1     0.598 
#>  4 G22   R1    B1     0.147 
#>  5 G21   R1    B2     0.115 
#>  6 G10   R1    B2    -0.231 
#>  7 G20   R1    B2    -0.480 
#>  8 G02   R1    B2    -0.136 
#>  9 G23   R1    B3    -0.327 
#> 10 G14   R1    B3     0.0930
#> # ... with 62 more rows
…
