Genotype-environment means — ge_means • metan
…
    Author

    Tiago Olivoto tiagoolivoto@gmail.com

    Examples

# \donttest{
library(metan)
means_ge <- ge_means(data_ge, ENV, GEN, resp = everything())

# Genotype-environment interaction means
get_model_data(means_ge)
#> Class of the model: ge_means
#> Variable extracted: ge_means
#> # A tibble: 140 × 4
#>    ENV   GEN      GY    HM
#>    <fct> <fct> <dbl> <dbl>
#>  1 E1    G1     2.37  46.5
#>  2 E1    G10    1.97  46.9
#>  3 E1    G2     2.90  45.3
#>  4 E1    G3     2.89  45.9
#>  5 E1    G4     2.59  48.3
#>  6 E1    G5     2.19  49.9
#>  7 E1    G6     2.30  48.2
#>  8 E1    G7     2.77  47.4
#>  9 E1    G8     2.90  48.0
#> 10 E1    G9     2.33  47.7
#> # … with 130 more rows
…
