Genotype-environment winners — ge_winners • metan
…
# Show the genotype ranking for each environment
ge_winners(data_ge, ENV, GEN,
           resp = everything(),
           type = "ranks")
#> # A tibble: 140 x 3
#>    ENV   GY    HM   
#>    <fct> <chr> <chr>
#>  1 E1    G2    G5   
#>  2 E1    G8    G4   
#>  3 E1    G3    G6   
#>  4 E1    G7    G8   
#>  5 E1    G4    G9   
#>  6 E1    G1    G7   
#>  7 E1    G9    G10  
#>  8 E1    G6    G1   
#>  9 E1    G5    G3   
#> 10 E1    G10   G2   
#> # ... with 130 more rows
…
