Plot the confidence interval for correlation — plot_ci • metan
…
    Value

    An object of class gg, ggplot.

    Examples

# \donttest{
library(metan)
library(dplyr)
# Traits that contains "E"
data_ge2 %>%
  select(contains('E')) %>%
  corr_ci() %>%
  plot_ci()
#> # A tibble: 21 × 7
#>    V1    V2       Corr     n     CI      LL     UL
#>    <chr> <chr>   <dbl> <int>  <dbl>   <dbl>  <dbl>
#>  1 EH    EP     0.870    156 0.0901  0.779  0.960 
#>  2 EH    EL     0.363    156 0.135   0.228  0.497 
#>  3 EH    ED     0.630    156 0.109   0.521  0.739 
#>  4 EH    CDED  -0.0659   156 0.170  -0.236  0.104 
#>  5 EH    PERK  -0.0213   156 0.176  -0.198  0.155 
#>  6 EH    NKE    0.388    156 0.132   0.256  0.520 
#>  7 EP    EL     0.263    156 0.146   0.118  0.409 
#>  8 EP    ED     0.458    156 0.125   0.333  0.583 
#>  9 EP    CDED   0.0897   156 0.167  -0.0775 0.257 
#> 10 EP    PERK  -0.0871   156 0.167  -0.255  0.0804
#> # … with 11 more rows
…
