Predict the means of a waas object — predict.waas • metan
…
#>        PC6  11   59.07   5.370    1.89 4.10e-02        5.4        93.0
#>        PC7   9   46.69   5.188    1.83 6.33e-02        4.2        97.3
#>        PC8   7   26.65   3.808    1.34 2.32e-01        2.4        99.7
#>        PC9   5    3.41   0.682    0.24 9.45e-01        0.3       100.0
#>  Residuals 252  715.69   2.840      NA       NA         NA          NA
#>      Total 536 9112.21  17.000      NA       NA         NA          NA
#> ---------------------------------------------------------------------------
#> 
#> All variables with significant (p < 0.05) genotype-vs-environment interaction
#> Done!
# Predict GY with 3 IPCA and HM with 1 IPCA
predict <- predict(model, naxis = c(3, 1))
predict
#> $GY
#> # A tibble: 140 × 7
#>    ENV   GEN       Y res_ols pred_ols res_ammi[,1] pred_ammi[,1]
#>    <chr> <chr> <dbl>   <dbl>    <dbl>        <dbl>         <dbl>
#>  1 E1    G1     2.37 -0.0843     2.45       0.0777          2.53
#>  2 E1    G10    1.97 -0.344      2.32      -0.321           2.00
#>  3 E1    G2     2.90  0.311      2.59       0.244           2.83
#>  4 E1    G3     2.89  0.0868     2.80      -0.0626          2.74
#>  5 E1    G4     2.59  0.100      2.49       0.0354          2.52
#>  6 E1    G5     2.19 -0.196      2.38      -0.0886          2.30
#>  7 E1    G6     2.30 -0.0797     2.38      -0.106           2.27
#>  8 E1    G7     2.77  0.186      2.59       0.234           2.82
#>  9 E1    G8     2.90  0.0493     2.85       0.0112          2.86
#> 10 E1    G9     2.33 -0.0307     2.36      -0.0233          2.33
#> # … with 130 more rows
#> 
#> $HM
#> # A tibble: 140 × 7
#>    ENV   GEN       Y res_ols pred_ols res_ammi[,1] pred_ammi[,1]
#>    <chr> <chr> <dbl>   <dbl>    <dbl>        <dbl>         <dbl>
#>  1 E1    G1     46.5   0.117     46.4      0.0381           46.4
#>  2 E1    G10    46.9  -0.923     47.8     -0.242            47.6
#>  3 E1    G2     45.3  -0.660     46.0      0.213            46.2
#>  4 E1    G3     45.9  -1.05      46.9      0.0465           47.0
#>  5 E1    G4     48.3   0.931     47.4     -0.0275           47.3
#>  6 E1    G5     49.9   1.26      48.6      0.215            48.8
#>  7 E1    G6     48.2   0.189     48.1      0.0745           48.1
#>  8 E1    G7     47.4   0.154     47.3     -0.166            47.1
#>  9 E1    G8     48.0  -0.466     48.4     -0.00568          48.4
#> 10 E1    G9     47.7   0.450     47.2     -0.146            47.1
#> # … with 130 more rows
…
