Print an object of class anova_joint — print.anova_joint • metan
…
#> 
#> $model
#> Call:
#>    aov(formula = mean ~ GEN + ENV + GEN:ENV + ENV/REP, data = data)
#> 
#> Terms:
#>                       GEN       ENV   GEN:ENV   ENV:REP Residuals
#> Sum of Squares   12.99504 279.57355  31.21956   9.66152  24.36667
#> Deg. of Freedom         9        13       117        28       252
#> 
#> Residual standard error: 0.3109552
#> Estimated effects may be unbalanced
#> 
#> $augment
#> # A tibble: 420 × 11
#>    ENV   GEN   REP    mean   hat sigma fitted    resid  stdres se.fit factors
#>    <fct> <fct> <fct> <dbl> <dbl> <dbl>  <dbl>    <dbl>   <dbl>  <dbl> <chr>  
#>  1 E1    G1    1      2.17 0.400 0.311   2.42 -0.255   -1.06    0.197 G1_1   
#>  2 E1    G1    2      2.50 0.400 0.311   2.40  0.101    0.420   0.197 G1_2   
#>  3 E1    G1    3      2.43 0.400 0.311   2.27  0.154    0.640   0.197 G1_3   
#>  4 E1    G2    1      3.21 0.400 0.311   2.96  0.249    1.04    0.197 G2_1   
#>  5 E1    G2    2      2.93 0.400 0.312   2.94 -0.00492 -0.0204  0.197 G2_2   
#>  6 E1    G2    3      2.56 0.400 0.311   2.81 -0.244   -1.01    0.197 G2_3   
#>  7 E1    G3    1      2.77 0.4   0.311   2.95 -0.176   -0.729   0.197 G3_1   
#>  8 E1    G3    2      3.62 0.400 0.306   2.92  0.696    2.89    0.197 G3_2   
#>  9 E1    G3    3      2.28 0.400 0.309   2.80 -0.521   -2.16    0.197 G3_3   
#> 10 E1    G4    1      2.36 0.400 0.311   2.65 -0.286   -1.19    0.197 G4_1   
#> # … with 410 more rows
…
#> 
#> $model
#> Call:
#>    aov(formula = mean ~ GEN + ENV + GEN:ENV + ENV/REP, data = data)
#> 
#> Terms:
#>                      GEN      ENV  GEN:ENV  ENV:REP Residuals
#> Sum of Squares   269.811 5710.317 1100.734  214.931   715.685
#> Deg. of Freedom        9       13      117       28       252
#> 
#> Residual standard error: 1.685236
#> Estimated effects may be unbalanced
#> 
#> $augment
#> # A tibble: 420 × 11
#>    ENV   GEN   REP    mean   hat sigma fitted  resid stdres se.fit factors
#>    <fct> <fct> <fct> <dbl> <dbl> <dbl>  <dbl>  <dbl>  <dbl>  <dbl> <chr>  
#>  1 E1    G1    1      44.9 0.400  1.68   46.5 -1.62  -1.24    1.07 G1_1   
#>  2 E1    G1    2      46.9 0.400  1.69   46.0  0.942  0.721   1.07 G1_2   
#>  3 E1    G1    3      47.8 0.400  1.69   47.1  0.678  0.519   1.07 G1_3   
#>  4 E1    G2    1      45.2 0.400  1.69   45.4 -0.153 -0.117   1.07 G2_1   
#>  5 E1    G2    2      45.3 0.400  1.69   44.8  0.538  0.412   1.07 G2_2   
#>  6 E1    G2    3      45.5 0.400  1.69   45.9 -0.386 -0.295   1.07 G2_3   
#>  7 E1    G3    1      46.7 0.4    1.69   45.9  0.791  0.606   1.07 G3_1   
#>  8 E1    G3    2      43.2 0.400  1.68   45.3 -2.11  -1.62    1.07 G3_2   
#>  9 E1    G3    3      47.8 0.400  1.69   46.4  1.32   1.01    1.07 G3_3   
#> 10 E1    G4    1      47.9 0.400  1.69   48.3 -0.386 -0.296   1.07 G4_1   
#> # … with 410 more rows
…
