Print an object of class waas_means — print.waas_means • metan
…
#> Evaluating trait GY |======================                      | 50% 00:00:00 Evaluating trait HM |============================================| 100% 00:00:00 
print(model)

#> Variable GY 
#> ---------------------------------------------------------------------------
#> Weighted average of the absolute scores
#> ---------------------------------------------------------------------------
#> # A tibble: 24 x 22
#>    type  Code      Y      PC1      PC2      PC3      PC4      PC5      PC6
#>    <chr> <chr> <dbl>    <dbl>    <dbl>    <dbl>    <dbl>    <dbl>    <dbl>
#>  1 GEN   G1    2.604  0.3166  -0.04417  0.03600  0.06595 -0.3125   0.4272 
#>  2 GEN   G10   2.471 -1.001   -0.5718   0.1652   0.3309  -0.1243  -0.1064 
#>  3 GEN   G2    2.744  0.1390   0.1988   0.7331  -0.4735  -0.04816 -0.2841 
#>  4 GEN   G3    2.955  0.04340 -0.1028  -0.2284  -0.1769  -0.1270  -0.1400 
#>  5 GEN   G4    2.642 -0.3251   0.4782   0.09073 -0.1417  -0.1924   0.3550 
#>  6 GEN   G5    2.537 -0.3260   0.2461  -0.2452  -0.1794   0.4662   0.03315
#>  7 GEN   G6    2.534 -0.09836  0.2429  -0.5607  -0.2377   0.05094 -0.1011 
#>  8 GEN   G7    2.741  0.2849   0.5871   0.2068   0.7085   0.2315  -0.08406
#>  9 GEN   G8    3.004  0.4995  -0.1916  -0.3191   0.1676  -0.3261  -0.2886 
#> 10 GEN   G9    2.510  0.4668  -0.8427   0.1217  -0.06385  0.3819   0.1889 
#> # ... with 14 more rows, and 13 more variables: PC7 <dbl>, PC8 <dbl>,
#> #   PC9 <dbl>, WAAS <dbl>, PctResp <dbl>, PctWAAS <dbl>, wRes <dbl>,
#> #   wWAAS <dbl>, OrResp <dbl>, OrWAAS <dbl>, OrPC1 <dbl>, WAASY <dbl>,
#> #   OrWAASY <dbl>
…
#> Proportion of the variance explained
#> ---------------------------------------------------------------------------
#> [1] 34.4308 31.7875 12.9380  9.8457  4.6331  2.9861  1.8152  1.1605  0.4031
#> ---------------------------------------------------------------------------
#> Cumulative proportion of the variance explained
#> ---------------------------------------------------------------------------
#> [1]  34.43  66.22  79.16  89.00  93.64  96.62  98.44  99.60 100.00
#> 
#> 
#> 
#> Variable HM 
#> ---------------------------------------------------------------------------
#> Weighted average of the absolute scores
#> ---------------------------------------------------------------------------
#> # A tibble: 24 x 22
#>    type  Code      Y      PC1      PC2       PC3       PC4      PC5       PC6
#>    <chr> <chr> <dbl>    <dbl>    <dbl>     <dbl>     <dbl>    <dbl>     <dbl>
#>  1 GEN   G1    47.08  0.2800   0.4635   0.1740   -1.369    -1.135    0.03658 
#>  2 GEN   G10   48.51 -1.779    1.866   -0.006219  0.9219    0.1096  -0.009745
#>  3 GEN   G2    46.66  1.563    0.5518  -0.9357    0.4913    0.2843   1.184   
#>  4 GEN   G3    47.60  0.3417  -0.2012  -0.8001    0.3753   -0.4979  -1.294   
#>  5 GEN   G4    48.03 -0.2020  -1.841    0.2801    0.005954  0.8201   0.2734  
#>  6 GEN   G5    49.30  1.580    1.030    1.078    -0.2789    1.005   -0.7368  
#>  7 GEN   G6    48.73  0.5474  -0.2453   0.5324    0.4603   -1.008    0.5861  
#>  8 GEN   G7    47.97 -1.218   -0.4680   1.254    -0.05482  -0.03429  0.3366  
#>  9 GEN   G8    49.10 -0.04176 -1.241   -0.4105    0.6394   -0.1785  -0.5149  
#> 10 GEN   G9    47.90 -1.072    0.08563 -1.166    -1.191     0.6351   0.1393  
#> # ... with 14 more rows, and 13 more variables: PC7 <dbl>, PC8 <dbl>,
#> #   PC9 <dbl>, WAAS <dbl>, PctResp <dbl>, PctWAAS <dbl>, wRes <dbl>,
#> #   wWAAS <dbl>, OrResp <dbl>, OrWAAS <dbl>, OrPC1 <dbl>, WAASY <dbl>,
#> #   OrWAASY <dbl>
…
