Utilities for handling with matrices — utils_mat • metan
…
#> EL 0.3626537 0.2634237        NA        NA        NA NA
#> ED 0.6302561 0.4580196 0.3851451        NA        NA NA
#> CL 0.3971935 0.3908239 0.2554068 0.6974629        NA NA
#> CD 0.2805118 0.1750448 0.9118653 0.3897128 0.3003636 NA
make_lower_tri(m) %.html'>%>%
make_sym(diag = 0)
#>           EH        EP        EL        ED        CL        CD
#> EH 0.0000000 0.8695460 0.3626537 0.6302561 0.3971935 0.2805118
#> EP 0.8695460 0.0000000 0.2634237 0.4580196 0.3908239 0.1750448
#> EL 0.3626537 0.2634237 0.0000000 0.3851451 0.2554068 0.9118653
#> ED 0.6302561 0.4580196 0.3851451 0.0000000 0.6974629 0.3897128
#> CL 0.3971935 0.3908239 0.2554068 0.6974629 0.0000000 0.3003636
#> CD 0.2805118 0.1750448 0.9118653 0.3897128 0.3003636 0.0000000
tidy_sym(m)
#> # A tibble: 36 x 3
#>    group1 group2 value
#>    <chr>  <chr>  <dbl>
#>  1 CD     EH     0.281
#>  2 CD     EP     0.175
#>  3 CD     EL     0.912
#>  4 CD     ED     0.390
#>  5 CD     CL     0.300
#>  6 CD     CD     1    
#>  7 CL     EH     0.397
#>  8 CL     EP     0.391
#>  9 CL     EL     0.255
#> 10 CL     ED     0.697
#> # ... with 26 more rows
…
