Useful functions for computing descriptive statistics — utils_stats • metan
…
    Ferreira, Daniel Furtado. 2009. Estatistica Basica. 2 ed. Vicosa,
MG: UFLA.

    Author

    Tiago Olivoto tiagoolivoto@gmail.com

    Examples

# \donttest{
library(metan)
# means of all numeric variables by ENV
mean_by(data_ge2, GEN, ENV)
#> # A tibble: 52 × 17
#>    GEN   ENV      PH    EH    EP    EL    ED    CL    CD    CW    KW    NR   NKR
#>    <fct> <fct> <dbl> <dbl> <dbl> <dbl> <dbl> <dbl> <dbl> <dbl> <dbl> <dbl> <dbl>
#>  1 H1    A1     2.72 1.68  0.626  15.4  51.1  28.1  15.7  23.5  203.  16.3  33.3
#>  2 H1    A2     2.93 1.80  0.612  15.0  51.9  31.5  15.5  30.2  188.  17.1  31.4
#>  3 H1    A3     2.20 1.10  0.497  14.8  50.6  30.9  15.8  26.8  157.  15.9  28.4
#>  4 H1    A4     2.64 1.44  0.547  15.2  51.2  29.8  15.8  26.4  187.  17.2  35.7
#>  5 H10   A1     2.78 1.62  0.584  16.1  53.2  31.4  16.8  24.6  192.  16.7  31.2
#>  6 H10   A2     2.05 0.987 0.494  15.5  46.7  26.8  16.3  26.3  160.  14    33.5
#>  7 H10   A3     2.04 1.01  0.503  14.0  43.9  24.8  15.2  12.3  121.  15.3  33.3
#>  8 H10   A4     2.39 1.43  0.600  14.9  50.0  30.7  15.3  28.0  183.  16.4  31.6
#>  9 H11   A1     2.75 1.58  0.574  16.6  48.9  29.0  17.2  23.6  188.  15.2  34.6
#> 10 H11   A2     2.15 1.02  0.475  15.1  47.3  27.2  15.7  24.3  164.  13.7  35  
#> # … with 42 more rows, and 4 more variables: CDED <dbl>, PERK <dbl>, TKW <dbl>,
#> #   NKE <dbl>

# Coefficient of variation for all numeric variables
# by GEN and ENV
cv_by(data_ge2, GEN, ENV)
#> # A tibble: 52 × 17
#>    GEN   ENV       PH    EH    EP    EL    ED    CL    CD    CW    KW    NR
#>    <fct> <fct>  <dbl> <dbl> <dbl> <dbl> <dbl> <dbl> <dbl> <dbl> <dbl> <dbl>
#>  1 H1    A1     4.93   5.36  5.34  7.15 1.98   1.48  6.91  7.93  8.31  5.12
#>  2 H1    A2     3.46   5.98  2.71  2.04 1.92   1.92  1.98  3.75  5.44  3.58
#>  3 H1    A3     4.14   4.98  1.01  7.00 3.58   2.25  6.43 14.6  15.2   2.91
#>  4 H1    A4     8.66   9.84  1.89  9.88 3.72   5.51 11.4  19.1  17.9   4.65
#>  5 H10   A1     1.97   6.11  5.33  6.46 1.43   2.72  6.78 13.6   7.99  6.04
#>  6 H10   A2     5.31   6.83 12.8   5.29 0.800  1.38  4.89  8.81  9.34  7.56
#>  7 H10   A3    11.9   11.3   2.24  3.23 0.436  5.56  5.40  5.80  5.23  3.98
#>  8 H10   A4     4.38   3.53  8.82  3.11 3.42   3.89  3.09  5.02  6.07  2.44
#>  9 H11   A1     0.988  5.01  4.44  4.94 4.95   5.27  4.72 12.3  13.9  10.5 
#> 10 H11   A2     1.43   3.00  4.00  4.84 0.762  2.48  5.02 15.8   5.37  3.36
#> # … with 42 more rows, and 5 more variables: NKR <dbl>, CDED <dbl>, PERK <dbl>,
#> #   TKW <dbl>, NKE <dbl>
…
