Random Sampling — utils_samples • metan
…
library(metan)
sample_random(data_ge, n = 5)
#> # A tibble: 5 × 5
#>   ENV   GEN   REP      GY    HM
#>   <fct> <fct> <fct> <dbl> <dbl>
#> 1 E14   G6    1      2.00  39  
#> 2 E6    G9    2      2.85  47.5
#> 3 E1    G10   1      2.18  47.3
#> 4 E10   G8    2      2.89  45  
#> 5 E14   G8    1      1.77  42  
sample_random(data_ge,
              n = 3,
              by = ENV)
#> # A tibble: 42 × 5
#>    ENV   GEN   REP      GY    HM
#>    <fct> <fct> <fct> <dbl> <dbl>
#>  1 E1    G10   3      2.48  48.8
#>  2 E1    G1    1      2.17  44.9
#>  3 E1    G6    3      2.19  48.4
#>  4 E10   G7    3      2.18  43  
#>  5 E10   G7    1      2.60  40  
#>  6 E10   G6    2      2.53  47  
#>  7 E11   G8    2      1.41  58  
#>  8 E11   G9    1      1.01  53.7
#>  9 E11   G10   2      1.04  51  
#> 10 E12   G4    3      1.44  53  
#> # … with 32 more rows
…
