Weighted Average of Absolute Scores — waasb • metan
…
#>    GEN        GY      HM
#>    <fct>   <dbl>   <dbl>
#>  1 G1    -0.0575 -0.692 
#>  2 G2     0.0570 -0.980 
#>  3 G3     0.229  -0.332 
#>  4 G4    -0.0264 -0.0387
#>  5 G5    -0.112   0.830 
#>  6 G6    -0.114   0.441 
#>  7 G7     0.0543 -0.0838
#>  8 G8     0.269   0.696 
#>  9 G9    -0.134  -0.127 
#> 10 G10   -0.166   0.287 
#> 
#> $ENV_GEN
#> # A tibble: 140 x 4
#>    ENV   GEN        GY      HM
#>    <fct> <fct>   <dbl>   <dbl>
#>  1 E1    G1    -0.0633 -0.149 
#>  2 E1    G2     0.205  -0.784 
#>  3 E1    G3     0.0873 -0.847 
#>  4 E1    G4     0.0589  0.628 
#>  5 E1    G5    -0.142   1.13  
#>  6 E1    G6    -0.0685  0.263 
#>  7 E1    G7     0.125   0.0706
#>  8 E1    G8     0.0690 -0.113 
#>  9 E1    G9    -0.0401  0.264 
#> 10 E1    G10   -0.244  -0.563 
#> # ... with 130 more rows
#> 
#> $ENV_REP
#> # A tibble: 42 x 4
#>    ENV   REP        GY       HM
#>    <fct> <fct>   <dbl>    <dbl>
#>  1 E1    1      0.0388  0.00690
#>  2 E1    2      0.0242 -0.366  
#>  3 E1    3     -0.0684  0.336  
#>  4 E2    1     -0.213  -0.549  
#>  5 E2    2      0.129  -0.0634 
#>  6 E2    3      0.101   0.482  
#>  7 E3    1      0.197  -0.0100 
#>  8 E3    2     -0.102   0.620  
#>  9 E3    3     -0.0464 -0.451  
#> 10 E4    1      0.0653 -0.294  
#> # ... with 32 more rows
#> 
#> $ENV_GEN_REP
#> # A tibble: 420 x 5
#>    ENV   GEN   REP        GY      HM
#>    <fct> <fct> <fct>   <dbl>   <dbl>
#>  1 E1    G1    1     -0.232  -1.48  
#>  2 E1    G1    2     -0.247  -1.86  
#>  3 E1    G1    3     -0.339  -1.15  
#>  4 E1    G2    1      0.151  -2.41  
#>  5 E1    G2    2      0.137  -2.78  
#>  6 E1    G2    3      0.0442 -2.08  
#>  7 E1    G3    1      0.205  -1.82  
#>  8 E1    G3    2      0.191  -2.19  
#>  9 E1    G3    3      0.0982 -1.49  
#> 10 E1    G4    1     -0.0785 -0.0521
#> # ... with 410 more rows
…
